Chic Hen Run: tibble package
…
이번엔 tibble 패키지를 이용해볼까요. 여기서 사용할 함수는 as_tibble( )입니다. 무언가를 tibble로 만들어주는 고마운 함수입니다. 새로운 iris tibble 녀석을 tbl_iris에 할당했습니다. 그리고 불러와봅시다. tibble은 그냥 tbl_iris라고 입력해도 콘솔창을 다 뒤덮지않는군요. 10개의 행을 보여주고는 나머지 140개가 남아있다고 깨알같이 설명해줍니다. 게다가 5개의 칼럼이 어떤 녀석인지 밑에다가 자료형을 설명해주고 있군요. 착한 녀석이죠. 혹여나 이러한 편의를 무시하고 모든 행을 다 보고 싶은 경우에는 옵션을 통해 바꿔줄 수 있습니다.

library(tibble)

# as_tibble(sth) : sth을 tibble로 만들어주세요
tbl_iris <- as_tibble(iris)

# A tibble: 150 × 5
   Sepal.Length Sepal.Width Petal.Length Petal.Width Species
          <dbl>       <dbl>        <dbl>       <dbl> <fct>  
 1          5.1         3.5          1.4         0.2 setosa 
 2          4.9         3            1.4         0.2 setosa 
 3          4.7         3.2          1.3         0.2 setosa 
 4          4.6         3.1          1.5         0.2 setosa 
 5          5           3.6          1.4         0.2 setosa 
 6          5.4         3.9          1.7         0.4 setosa 
 7          4.6         3.4          1.4         0.3 setosa 
 8          5           3.4          1.5         0.2 setosa 
 9          4.4         2.9          1.4         0.2 setosa 
10          4.9         3.1          1.5         0.1 setosa 
# … with 140 more rows
…
